<svg xmlns="http://www.w3.org/2000/svg" viewBox="0 0 600 500">
  <defs>
    <style>
      .cls-1 {
        fill: #ebebeb;
      }

      .cls-2 {
        fill: #ffc12f;
        stroke: #dfa023;
      }

      .cls-2, .cls-3 {
        stroke-miterlimit: 10;
        stroke-width: 0.5px;
      }

      .cls-3 {
        fill: #ff6157;
        stroke: #e24640;
      }

      .cls-11, .cls-4 {
        fill: #fff;
      }

      .cls-11, .cls-5 {
        font-size: 14px;
        font-family: SFProText-Regular, SF Pro Text, -apple-system;;
      }

      .cls-6 {
        fill: #61b4f4;
      }

      .cls-6, .cls-7 {
        opacity: 0.096;
      }

      .cls-7, .cls-9 {
        font-size: 11px;
        font-family: SFCompactDisplay-Bold, SF Compact Display, -apple-system;;
        font-weight: 700;
      }

      .cls-13, .cls-8 {
        fill: #6a6a6a;
        font-family: '\.AppleSystemUIFont';
      }

      .cls-8 {
        font-size: 13px;
      }

      .cls-10 {
        fill: #58c4fd;
      }

      .cls-12 {
        fill: #cecece;
        opacity: 0.316;
      }

      .cls-13 {
        font-size: 17px;
      }

      .cls-14 {
        fill: #383838;
      }

      .cls-15 {
        fill: #ff0;
      }

      .cls-16 {
        stroke: none;
      }

      .cls-17 {
        fill: none;
      }
    </style>
  </defs>
  <g id="Group_553" data-name="Group 553" transform="translate(-3758 -783)">
    <rect id="Rectangle_1539" data-name="Rectangle 1539" class="cls-1" width="600" height="500" rx="15" transform="translate(3758 783)"/>
    <g id="Group_550" data-name="Group 550" transform="translate(-236 520)">
      <g id="Minimise" class="cls-2" transform="translate(4039 283)">
        <circle class="cls-16" cx="7" cy="7" r="7"/>
        <circle class="cls-17" cx="7" cy="7" r="6.75"/>
      </g>
      <g id="Close" class="cls-3" transform="translate(4014 283)">
        <circle class="cls-16" cx="7" cy="7" r="7"/>
        <circle class="cls-17" cx="7" cy="7" r="6.75"/>
      </g>
    </g>
    <path id="Rectangle_1540" data-name="Rectangle 1540" class="cls-4" d="M3,0H361a10,10,0,0,1,10,10V35a10,10,0,0,1-10,10H10A10,10,0,0,1,0,35V3A3,3,0,0,1,3,0Z" transform="translate(3773 875)"/>
    <path id="Rectangle_1541" data-name="Rectangle 1541" class="cls-4" d="M10,0H239a10,10,0,0,1,10,10V25a10,10,0,0,1-10,10H3a3,3,0,0,1-3-3V10A10,10,0,0,1,10,0Z" transform="translate(3773 836)"/>
    <text id="Hey_Andrew_have_you_seen_David_" data-name="Hey Andrew, have you seen David?" class="cls-5" transform="translate(3783 859)"><tspan x="0" y="0">Hey Andrew, have you seen David?</tspan></text>
    <text id="I_can_t_seem_to_find_him_after_Aaron_Rodgers_gave_his_favorite_team_the_Bears_another_L_last_night." data-name="I can’t seem to find him after Aaron Rodgers gave his favorite team the Bears another L last night." class="cls-5" transform="translate(3783 882)"><tspan x="0" y="13">I can’t seem to find him after Aaron Rodgers gave his </tspan><tspan x="0" y="29">favorite team the Bears another L last night.</tspan></text>
    <path id="Rectangle_1542" data-name="Rectangle 1542" class="cls-6" d="M0,0H232a0,0,0,0,1,0,0V0a10,10,0,0,1-10,10H10A10,10,0,0,1,0,0V0A0,0,0,0,1,0,0Z" transform="translate(4111 783)"/>
    <text id="You_Sarah_Smith" data-name="You Sarah Smith" class="cls-7" transform="translate(4114 808)"><tspan x="122" y="0">You to Sarah Smith</tspan></text>
    <g id="Group_551" data-name="Group 551" transform="translate(3756 783)">
      <g id="Group_547" data-name="Group 547">
        <circle id="Ellipse_31" data-name="Ellipse 31" class="cls-4" cx="15" cy="15" r="15" transform="translate(17 142)"/>
        <text id="T" class="cls-8" transform="translate(28 162)"><tspan x="0" y="0">E</tspan></text>
      </g>
      <text id="Message_from_Enrique_Hernandez" data-name="Message from Enrique Hernandez" class="cls-9" transform="translate(53 161)"><tspan x="0" y="0">Message from Enrique Hernandez</tspan></text>
    </g>
    <rect id="Rectangle_1543" data-name="Rectangle 1543" class="cls-10" width="151" height="31" rx="10" transform="translate(4192 977)"/>
    <text id="Funny_you_say_that." data-name="Funny you say that." class="cls-11" transform="translate(4202 984)"><tspan x="0" y="13">Funny you say that.</tspan></text>
    <text id="You_to_Enrique_Hernandez" data-name="You to Enrique Hernandez" class="cls-9" transform="translate(4213 1074)"><tspan x="-15" y="0">You to Enrique Hernandez</tspan></text>
    <circle id="Ellipse_32" data-name="Ellipse 32" class="cls-12" cx="28" cy="28" r="28" transform="translate(4280 1204)"/>
    <circle id="Ellipse_33" data-name="Ellipse 33" class="cls-12" cx="34.5" cy="34.5" r="34.5" transform="translate(4274 1198)"/>
    <circle id="Ellipse_34" data-name="Ellipse 34" class="cls-4" cx="19.5" cy="19.5" r="19.5" transform="translate(4289 1212)"/>
    <text id="A" class="cls-13" transform="translate(4303 1238)"><tspan x="0" y="0">A</tspan></text>
    <path id="Rectangle_1544" data-name="Rectangle 1544" class="cls-10" d="M10,0H141a10,10,0,0,1,10,10V28a3,3,0,0,1-3,3H10A10,10,0,0,1,0,21V10A10,10,0,0,1,10,0Z" transform="translate(4192 977)"/>
    <text id="Funny_you_say_that.-2" data-name="Funny you say that." class="cls-11" transform="translate(4202 984)"><tspan x="0" y="13">Funny you say that.</tspan></text>
    <path id="Rectangle_1545" data-name="Rectangle 1545" class="cls-10" d="M10,0H363a3,3,0,0,1,3,3V38a10,10,0,0,1-10,10H10A10,10,0,0,1,0,38V10A10,10,0,0,1,10,0Z" transform="translate(3977 1012)"/>
    <text id="I_saw_him_buying_an_Arron_Rodgers_jersey_on_my_way_home." data-name="I saw him buying an Arron Rodgers jersey on my way home." class="cls-11" transform="translate(3987 1019)"><tspan x="0" y="13">I saw him buying an Arron Rodgers jersey on my way </tspan><tspan x="0" y="29">home.</tspan></text>
    <text id="Update_Contact" data-name="Update Contact" class="cls-9" transform="translate(4264 1129)"><tspan x="-10" y="0">Update Contact</tspan></text>
    <rect id="Rectangle_1546" data-name="Rectangle 1546" class="cls-10" width="347" height="30" rx="10" transform="translate(3996 1085)"/>
    <text id="Change_David_s_name_to_David_Bandwagon_Smith." data-name="Change David’s name to David Bandwagon Smith." class="cls-11" transform="translate(4006 1092)"><tspan x="0" y="13">Change David’s name to David Bandwagon Smith.</tspan></text>
    <rect id="Rectangle_1547" data-name="Rectangle 1547" class="cls-4" width="371" height="45" rx="10" transform="translate(3773 1140)"/>
    <text id="David_Smith_s_name_changed_to_David_Bandwagon_Smith." data-name="David Smith’s name changed to David Bandwagon Smith." class="cls-5" transform="translate(3783 1147)"><tspan x="0" y="13">David Smith’s name changed to David Bandwagon </tspan><tspan x="0" y="29">Smith.</tspan></text>
    <g id="Group_552" data-name="Group 552" transform="translate(3756 1048)">
      <g id="Group_547-2" data-name="Group 547">
        <circle id="Ellipse_31-2" data-name="Ellipse 31" class="cls-4" cx="15" cy="15" r="15" transform="translate(17 142)"/>
        <g id="Group_543" data-name="Group 543" transform="translate(-4101.897 -356.379)">
          <g id="Group_33" data-name="Group 33" transform="translate(4127 507)">
            <g id="Group_32" data-name="Group 32" transform="translate(0 0)">
              <g id="Group_31" data-name="Group 31" transform="translate(0 6.627)">
                <circle id="Ellipse_50" data-name="Ellipse 50" class="cls-14" cx="3.066" cy="3.066" r="3.066" transform="translate(0 0)"/>
                <circle id="Ellipse_51" data-name="Ellipse 51" class="cls-14" cx="3.066" cy="3.066" r="3.066" transform="translate(7.664 0)"/>
              </g>
              <circle id="Ellipse_52" data-name="Ellipse 52" class="cls-14" cx="3.066" cy="3.066" r="3.066" transform="translate(3.826 0)"/>
              <path id="Path_150" data-name="Path 150" class="cls-15" d="M36.27,83.67" transform="translate(-33.199 -73.977)"/>
            </g>
          </g>
        </g>
      </g>
      <text id="Update_Contact-2" data-name="Update Contact" class="cls-9" transform="translate(53 161)"><tspan x="0" y="0">Update Contact</tspan></text>
    </g>
  </g>
</svg>
